<?xml version="1.0" encoding="utf-8"?>
<!-- Generator: Adobe Illustrator 21.0.2, SVG Export Plug-In . SVG Version: 6.00 Build 0)  -->
<svg version="1.1" id="Isolation_Mode" xmlns="http://www.w3.org/2000/svg" xmlns:xlink="http://www.w3.org/1999/xlink" x="0px"
	 y="0px" viewBox="0 0 10.8 11.3" style="enable-background:new 0 0 10.8 11.3;" xml:space="preserve">
<style type="text/css">
	.st0{fill:#a80056;}
</style>
<path class="st0" d="M6,2.9L6,2.9L2,0.6C1.9,0.5,1.8,0.5,1.7,0.5C1.4,0.5,1.2,0.7,1.2,1v9.2l0,0c0,0.1,0,0.2,0.1,0.2
	c0.1,0.2,0.4,0.3,0.7,0.2l4-2.3L10,6c0.1,0,0.2-0.1,0.2-0.2c0.1-0.2,0-0.5-0.2-0.7L6,2.9L6,2.9z M5.5,7.5L5.5,7.5L2.2,9.4V1.9
	l3.3,1.9l3.3,1.9L5.5,7.5L5.5,7.5z"/>
</svg>
