<?xml version="1.0" standalone="yes"?>
<svg width="21" height="22">
<path style="fill:#eaeaea; stroke:none;" d="M0 0L0 22C4.79447 22 14.4565 23.8514 18.4861 20.9722C23.5224 17.3738 21.5721 8.21592 16 7L16 0L0 0z"/>
<path style="fill:#ffffff; stroke:none;" d="M16 0L16 7L21 8L21 0L16 0M16 10L16 20C18.63 16.9757 18.9157 13.9361 19 10L16 10M20 18L19 22C20.6556 20.5957 20.7511 20.0465 20 18z"/>
</svg>
