<?xml version="1.0" encoding="utf-8"?>
<!-- Generator: Adobe Illustrator 21.0.2, SVG Export Plug-In . SVG Version: 6.00 Build 0)  -->
<svg version="1.1" id="Isolation_Mode" xmlns="http://www.w3.org/2000/svg" xmlns:xlink="http://www.w3.org/1999/xlink" x="0px"
	 y="0px" viewBox="0 0 15 27" style="enable-background:new 0 0 15 27;" xml:space="preserve">
<style type="text/css">
	.st0{fill:#cd003a;}
</style>
<path class="st0" d="M0.4,24.4c-0.6,0.6-0.6,1.5,0,2.1c0.6,0.6,1.5,0.6,2.1,0l12-12c0.6-0.6,0.6-1.6,0-2.1l-12-12
	C2-0.1,1-0.1,0.4,0.4C-0.1,1-0.1,2,0.4,2.6l10.9,10.9L0.4,24.4L0.4,24.4z"/>
</svg>
